Examples/visual_project/mbus/wave_mbus_trans.vcd
$comment
Simulation of MBus Transaction
$end

$date
     Apr 04, 2014       07:25:25
$end

$version
              SystemC 2.3.0-ASI --- Mar 19 2014 06:58:55
$end

$scope module SystemC $end
$var wire    8  aaa  test_bus.address [7:0]  $end
$var wire    8  aab  test_bus.data [7:0]  $end
$var wire    1  aac  test_bus.read       $end
$var wire    1  aad  test_bus.write       $end
$upscope $end
$enddefinitions  $end

$comment
All initial values are dumped below at time 0 sec = 0 timescale units.
$end

$dumpvars
b0 aaa
b0 aab
0aac
0aad
$end

#5
b1 aaa
1aac
0aad

#8
0aac
1aad

#10
b0 aaa
b11110001 aab

#20
b0 aab

#22
b1 aaa
b1 aab

#24
b10 aaa
b10 aab

#26
b11 aaa
b11 aab

#28
b100 aaa
b100 aab

#30
b101 aaa
b101 aab

#32
b110 aaa
b110 aab

#34
b111 aaa
b111 aab

#36
b1000 aaa
b1000 aab

#38
b1001 aaa
b1001 aab

#40
b1010 aaa
b1010 aab

#42
b1011 aaa
b1011 aab

#44
b1100 aaa
b1100 aab

#46
b1101 aaa
b1101 aab

#48
b1110 aaa
b1110 aab

#50
b1111 aaa
b1111 aab

#52
b10000 aaa
b10000 aab

#54
b10001 aaa
b10001 aab

#56
b10010 aaa
b10010 aab

#58
b10011 aaa
b10011 aab

#60
b10100 aaa
b10100 aab

#62
b10101 aaa
b10101 aab

#64
b10110 aaa
b10110 aab

#66
b10111 aaa
b10111 aab

#68
b11000 aaa
b11000 aab

#70
b11001 aaa
b11001 aab

#72
b11010 aaa
b11010 aab

#74
b11011 aaa
b11011 aab

#76
b11100 aaa
b11100 aab

#78
b11101 aaa
b11101 aab

#80
b11110 aaa
b11110 aab

#82
b11111 aaa
b11111 aab

#84
b100000 aaa
b100000 aab

#86
b100001 aaa
b100001 aab

#88
b100010 aaa
b100010 aab

#90
b100011 aaa
b100011 aab

#92
b100100 aaa
b100100 aab

#94
b100101 aaa
b100101 aab

#96
b100110 aaa
b100110 aab

#98
b100111 aaa
b100111 aab

#100
b101000 aaa
b101000 aab

#102
b101001 aaa
b101001 aab

#104
b101010 aaa
b101010 aab

#106
b101011 aaa
b101011 aab

#108
b101100 aaa
b101100 aab

#110
b101101 aaa
b101101 aab

#112
b101110 aaa
b101110 aab

#114
b101111 aaa
b101111 aab

#116
b110000 aaa
b110000 aab

#118
b110001 aaa
b110001 aab

#120
b110010 aaa
b110010 aab

#122
b110011 aaa
b110011 aab

#124
b110100 aaa
b110100 aab

#126
b110101 aaa
b110101 aab

#128
b110110 aaa
b110110 aab

#130
b110111 aaa
b110111 aab

#132
b111000 aaa
b111000 aab

#134
b111001 aaa
b111001 aab

#136
b111010 aaa
b111010 aab

#138
b111011 aaa
b111011 aab

#140
b111100 aaa
b111100 aab

#142
b111101 aaa
b111101 aab

#144
b111110 aaa
b111110 aab

#146
b111111 aaa
b111111 aab

#148
b1000000 aaa
b1000000 aab

#150
b1000001 aaa
b1000001 aab

#152
b1000010 aaa
b1000010 aab

#154
b1000011 aaa
b1000011 aab

#156
b1000100 aaa
b1000100 aab

#158
b1000101 aaa
b1000101 aab

#160
b1000110 aaa
b1000110 aab

#162
b1000111 aaa
b1000111 aab

#164
b1001000 aaa
b1001000 aab

#166
b1001001 aaa
b1001001 aab

#168
b1001010 aaa
b1001010 aab

#170
b1001011 aaa
b1001011 aab

#172
b1001100 aaa
b1001100 aab

#174
b1001101 aaa
b1001101 aab

#176
b1001110 aaa
b1001110 aab

#178
b1001111 aaa
b1001111 aab

#180
b1010000 aaa
b1010000 aab

#182
b1010001 aaa
b1010001 aab

#184
b1010010 aaa
b1010010 aab

#186
b1010011 aaa
b1010011 aab

#188
b1010100 aaa
b1010100 aab

#190
b1010101 aaa
b1010101 aab

#192
b1010110 aaa
b1010110 aab

#194
b1010111 aaa
b1010111 aab

#196
b1011000 aaa
b1011000 aab

#198
b1011001 aaa
b1011001 aab

#200
b1011010 aaa
b1011010 aab

#202
b1011011 aaa
b1011011 aab

#204
b1011100 aaa
b1011100 aab

#206
b1011101 aaa
b1011101 aab

#208
b1011110 aaa
b1011110 aab

#210
b1011111 aaa
b1011111 aab

#212
b1100000 aaa
b1100000 aab

#214
b1100001 aaa
b1100001 aab

#216
b1100010 aaa
b1100010 aab

#218
b1100011 aaa
b1100011 aab

#220
b1100100 aaa
b1100100 aab

#222
b1100101 aaa
b1100101 aab

#224
b1100110 aaa
b1100110 aab

#226
b1100111 aaa
b1100111 aab

#228
b1101000 aaa
b1101000 aab

#230
b1101001 aaa
b1101001 aab

#232
b1101010 aaa
b1101010 aab

#234
b1101011 aaa
b1101011 aab

#236
b1101100 aaa
b1101100 aab

#238
b1101101 aaa
b1101101 aab

#240
b1101110 aaa
b1101110 aab

#242
b1101111 aaa
b1101111 aab

#244
b1110000 aaa
b1110000 aab

#246
b1110001 aaa
b1110001 aab

#248
b1110010 aaa
b1110010 aab

#250
b1110011 aaa
b1110011 aab

#252
b1110100 aaa
b1110100 aab

#254
b1110101 aaa
b1110101 aab

#256
b1110110 aaa
b1110110 aab

#258
b1110111 aaa
b1110111 aab

#260
b1111000 aaa
b1111000 aab

#262
b1111001 aaa
b1111001 aab

#264
b1111010 aaa
b1111010 aab

#266
b1111011 aaa
b1111011 aab

#268
b1111100 aaa
b1111100 aab

#270
b1111101 aaa
b1111101 aab

#272
b1111110 aaa
b1111110 aab

#274
b1111111 aaa
b1111111 aab

#276
b10000000 aaa
b10000000 aab

#278
b10000001 aaa
b10000001 aab

#280
b10000010 aaa
b10000010 aab

#282
b10000011 aaa
b10000011 aab

#284
b10000100 aaa
b10000100 aab

#286
b10000101 aaa
b10000101 aab

#288
b10000110 aaa
b10000110 aab

#290
b10000111 aaa
b10000111 aab

#292
b10001000 aaa
b10001000 aab

#294
b10001001 aaa
b10001001 aab

#296
b10001010 aaa
b10001010 aab

#298
b10001011 aaa
b10001011 aab

#300
b10001100 aaa
b10001100 aab

#302
b10001101 aaa
b10001101 aab

#304
b10001110 aaa
b10001110 aab

#306
b10001111 aaa
b10001111 aab

#308
b10010000 aaa
b10010000 aab

#310
b10010001 aaa
b10010001 aab

#312
b10010010 aaa
b10010010 aab

#314
b10010011 aaa
b10010011 aab

#316
b10010100 aaa
b10010100 aab

#318
b10010101 aaa
b10010101 aab

#320
b10010110 aaa
b10010110 aab

#322
b10010111 aaa
b10010111 aab

#324
b10011000 aaa
b10011000 aab

#326
b10011001 aaa
b10011001 aab

#328
b10011010 aaa
b10011010 aab

#330
b10011011 aaa
b10011011 aab

#332
b10011100 aaa
b10011100 aab

#334
b10011101 aaa
b10011101 aab

#336
b10011110 aaa
b10011110 aab

#338
b10011111 aaa
b10011111 aab

#340
b10100000 aaa
b10100000 aab

#342
b10100001 aaa
b10100001 aab

#344
b10100010 aaa
b10100010 aab

#346
b10100011 aaa
b10100011 aab

#348
b10100100 aaa
b10100100 aab

#350
b10100101 aaa
b10100101 aab

#352
b10100110 aaa
b10100110 aab

#354
b10100111 aaa
b10100111 aab

#356
b10101000 aaa
b10101000 aab

#358
b10101001 aaa
b10101001 aab

#360
b10101010 aaa
b10101010 aab

#362
b10101011 aaa
b10101011 aab

#364
b10101100 aaa
b10101100 aab

#366
b10101101 aaa
b10101101 aab

#368
b10101110 aaa
b10101110 aab

#370
b10101111 aaa
b10101111 aab

#372
b10110000 aaa
b10110000 aab

#374
b10110001 aaa
b10110001 aab

#376
b10110010 aaa
b10110010 aab

#378
b10110011 aaa
b10110011 aab

#380
b10110100 aaa
b10110100 aab

#382
b10110101 aaa
b10110101 aab

#384
b10110110 aaa
b10110110 aab

#386
b10110111 aaa
b10110111 aab

#388
b10111000 aaa
b10111000 aab

#390
b10111001 aaa
b10111001 aab

#392
b10111010 aaa
b10111010 aab

#394
b10111011 aaa
b10111011 aab

#396
b10111100 aaa
b10111100 aab

#398
b10111101 aaa
b10111101 aab

#400
b10111110 aaa
b10111110 aab

#402
b10111111 aaa
b10111111 aab

#404
b11000000 aaa
b11000000 aab

#406
b11000001 aaa
b11000001 aab

#408
b11000010 aaa
b11000010 aab

#410
b11000011 aaa
b11000011 aab

#412
b11000100 aaa
b11000100 aab

#414
b11000101 aaa
b11000101 aab

#416
b11000110 aaa
b11000110 aab

#418
b11000111 aaa
b11000111 aab

#420
b11001000 aaa
b11001000 aab

#422
b11001001 aaa
b11001001 aab

#424
b11001010 aaa
b11001010 aab

#426
b11001011 aaa
b11001011 aab

#428
b11001100 aaa
b11001100 aab

#430
b11001101 aaa
b11001101 aab

#432
b11001110 aaa
b11001110 aab

#434
b11001111 aaa
b11001111 aab

#436
b11010000 aaa
b11010000 aab

#438
b11010001 aaa
b11010001 aab

#440
b11010010 aaa
b11010010 aab

#442
b11010011 aaa
b11010011 aab

#444
b11010100 aaa
b11010100 aab

#446
b11010101 aaa
b11010101 aab

#448
b11010110 aaa
b11010110 aab

#450
b11010111 aaa
b11010111 aab

#452
b11011000 aaa
b11011000 aab

#454
b11011001 aaa
b11011001 aab

#456
b11011010 aaa
b11011010 aab

#458
b11011011 aaa
b11011011 aab

#460
b11011100 aaa
b11011100 aab

#462
b11011101 aaa
b11011101 aab

#464
b11011110 aaa
b11011110 aab

#466
b11011111 aaa
b11011111 aab

#468
b11100000 aaa
b11100000 aab

#470
b11100001 aaa
b11100001 aab

#472
b11100010 aaa
b11100010 aab

#474
b11100011 aaa
b11100011 aab

#476
b11100100 aaa
b11100100 aab

#478
b11100101 aaa
b11100101 aab

#480
b11100110 aaa
b11100110 aab

#482
b11100111 aaa
b11100111 aab

#484
b11101000 aaa
b11101000 aab

#486
b11101001 aaa
b11101001 aab

#488
b11101010 aaa
b11101010 aab

#490
b11101011 aaa
b11101011 aab

#492
b11101100 aaa
b11101100 aab

#494
b11101101 aaa
b11101101 aab

#496
b11101110 aaa
b11101110 aab

#498
b11101111 aaa
b11101111 aab

#500
b11110000 aaa
b11110000 aab

#502
b11110001 aaa
b11110001 aab

#504
b11110010 aaa
b11110010 aab

#506
b11110011 aaa
b11110011 aab

#508
b11110100 aaa
b11110100 aab

#510
b11110101 aaa
b11110101 aab

#512
b11110110 aaa
b11110110 aab

#514
b11110111 aaa
b11110111 aab

#516
b11111000 aaa
b11111000 aab

#518
b11111001 aaa
b11111001 aab

#520
b11111010 aaa
b11111010 aab

#522
b11111011 aaa
b11111011 aab

#524
b11111100 aaa
b11111100 aab

#526
b11111101 aaa
b11111101 aab

#528
b11111110 aaa
b11111110 aab

#530
b11111111 aaa
b11111111 aab

#532
b0 aaa
b0 aab
1aac
0aad

#534
b1 aaa

#536
b10 aaa

#538
b11 aaa

#540
b100 aaa

#542
b101 aaa

#544
b110 aaa

#546
b111 aaa

#548
b1000 aaa

#550
b1001 aaa

#552
b1010 aaa

#554
b1011 aaa

#556
b1100 aaa

#558
b1101 aaa

#560
b1110 aaa

#562
b1111 aaa

#564
b10000 aaa

#566
b10001 aaa

#568
b10010 aaa

#570
b10011 aaa

#572
b10100 aaa

#574
b10101 aaa

#576
b10110 aaa

#578
b10111 aaa

#580
b11000 aaa

#582
b11001 aaa

#584
b11010 aaa

#586
b11011 aaa

#588
b11100 aaa

#590
b11101 aaa

#592
b11110 aaa

#594
b11111 aaa

#596
b100000 aaa

#598
b100001 aaa

#600
b100010 aaa

#602
b100011 aaa

#604
b100100 aaa

#606
b100101 aaa

#608
b100110 aaa

#610
b100111 aaa

#612
b101000 aaa

#614
b101001 aaa

#616
b101010 aaa

#618
b101011 aaa

#620
b101100 aaa

#622
b101101 aaa

#624
b101110 aaa

#626
b101111 aaa

#628
b110000 aaa

#630
b110001 aaa

#632
b110010 aaa

#634
b110011 aaa

#636
b110100 aaa

#638
b110101 aaa

#640
b110110 aaa

#642
b110111 aaa

#644
b111000 aaa

#646
b111001 aaa

#648
b111010 aaa

#650
b111011 aaa

#652
b111100 aaa

#654
b111101 aaa

#656
b111110 aaa

#658
b111111 aaa

#660
b1000000 aaa

#662
b1000001 aaa

#664
b1000010 aaa

#666
b1000011 aaa

#668
b1000100 aaa

#670
b1000101 aaa

#672
b1000110 aaa

#674
b1000111 aaa

#676
b1001000 aaa

#678
b1001001 aaa

#680
b1001010 aaa

#682
b1001011 aaa

#684
b1001100 aaa

#686
b1001101 aaa

#688
b1001110 aaa

#690
b1001111 aaa

#692
b1010000 aaa

#694
b1010001 aaa

#696
b1010010 aaa

#698
b1010011 aaa

#700
b1010100 aaa

#702
b1010101 aaa

#704
b1010110 aaa

#706
b1010111 aaa

#708
b1011000 aaa

#710
b1011001 aaa

#712
b1011010 aaa

#714
b1011011 aaa

#716
b1011100 aaa

#718
b1011101 aaa

#720
b1011110 aaa

#722
b1011111 aaa

#724
b1100000 aaa

#726
b1100001 aaa

#728
b1100010 aaa

#730
b1100011 aaa

#732
b1100100 aaa

#734
b1100101 aaa

#736
b1100110 aaa

#738
b1100111 aaa

#740
b1101000 aaa

#742
b1101001 aaa

#744
b1101010 aaa

#746
b1101011 aaa

#748
b1101100 aaa

#750
b1101101 aaa

#752
b1101110 aaa

#754
b1101111 aaa

#756
b1110000 aaa

#758
b1110001 aaa

#760
b1110010 aaa

#762
b1110011 aaa

#764
b1110100 aaa

#766
b1110101 aaa

#768
b1110110 aaa

#770
b1110111 aaa

#772
b1111000 aaa

#774
b1111001 aaa

#776
b1111010 aaa

#778
b1111011 aaa

#780
b1111100 aaa

#782
b1111101 aaa

#784
b1111110 aaa

#786
b1111111 aaa

#788
b10000000 aaa

#790
b10000001 aaa

#792
b10000010 aaa

#794
b10000011 aaa

#796
b10000100 aaa

#798
b10000101 aaa

#800
b10000110 aaa

#802
b10000111 aaa

#804
b10001000 aaa

#806
b10001001 aaa

#808
b10001010 aaa

#810
b10001011 aaa

#812
b10001100 aaa

#814
b10001101 aaa

#816
b10001110 aaa

#818
b10001111 aaa

#820
b10010000 aaa

#822
b10010001 aaa

#824
b10010010 aaa

#826
b10010011 aaa

#828
b10010100 aaa

#830
b10010101 aaa

#832
b10010110 aaa

#834
b10010111 aaa

#836
b10011000 aaa

#838
b10011001 aaa

#840
b10011010 aaa

#842
b10011011 aaa

#844
b10011100 aaa

#846
b10011101 aaa

#848
b10011110 aaa

#850
b10011111 aaa

#852
b10100000 aaa

#854
b10100001 aaa

#856
b10100010 aaa

#858
b10100011 aaa

#860
b10100100 aaa

#862
b10100101 aaa

#864
b10100110 aaa

#866
b10100111 aaa

#868
b10101000 aaa

#870
b10101001 aaa

#872
b10101010 aaa

#874
b10101011 aaa

#876
b10101100 aaa

#878
b10101101 aaa

#880
b10101110 aaa

#882
b10101111 aaa

#884
b10110000 aaa

#886
b10110001 aaa

#888
b10110010 aaa

#890
b10110011 aaa

#892
b10110100 aaa

#894
b10110101 aaa

#896
b10110110 aaa

#898
b10110111 aaa

#900
b10111000 aaa

#902
b10111001 aaa

#904
b10111010 aaa

#906
b10111011 aaa

#908
b10111100 aaa

#910
b10111101 aaa

#912
b10111110 aaa

#914
b10111111 aaa

#916
b11000000 aaa

#918
b11000001 aaa

#920
b11000010 aaa

#922
b11000011 aaa

#924
b11000100 aaa

#926
b11000101 aaa

#928
b11000110 aaa

#930
b11000111 aaa

#932
b11001000 aaa

#934
b11001001 aaa

#936
b11001010 aaa

#938
b11001011 aaa

#940
b11001100 aaa

#942
b11001101 aaa

#944
b11001110 aaa

#946
b11001111 aaa

#948
b11010000 aaa

#950
b11010001 aaa

#952
b11010010 aaa

#954
b11010011 aaa

#956
b11010100 aaa

#958
b11010101 aaa

#960
b11010110 aaa

#962
b11010111 aaa

#964
b11011000 aaa

#966
b11011001 aaa

#968
b11011010 aaa

#970
b11011011 aaa

#972
b11011100 aaa

#974
b11011101 aaa

#976
b11011110 aaa

#978
b11011111 aaa

#980
b11100000 aaa

#982
b11100001 aaa

#984
b11100010 aaa

#986
b11100011 aaa

#988
b11100100 aaa

#990
b11100101 aaa

#992
b11100110 aaa

#994
b11100111 aaa

#996
b11101000 aaa

#998
b11101001 aaa

#1000
b11101010 aaa

#1002
b11101011 aaa

#1004
b11101100 aaa

#1006
b11101101 aaa

#1008
b11101110 aaa

#1010
b11101111 aaa

#1012
b11110000 aaa

#1014
b11110001 aaa

#1016
b11110010 aaa

#1018
b11110011 aaa

#1020
b11110100 aaa

#1022
b11110101 aaa

#1024
b11110110 aaa

#1026
b11110111 aaa

#1028
b11111000 aaa

#1030
b11111001 aaa

#1032
b11111010 aaa

#1034
b11111011 aaa

#1036
b11111100 aaa

#1038
b11111101 aaa

#1040
b11111110 aaa

#1042
b11111111 aaa

#1044
b1 aaa
0aac

#1054
b0 aaa
b11110000 aab
1aad

